{
  "links": {
    "first": "/api/v1/documents?page=1",
    "last": "/api/v1/documents?page=4",
    "prev": null,
    "next": "/api/v1/documents?page=2"
  },
  "meta": {
    "currentPage": 1,
    "from": 1,
    "lastPage": 8,
    "path": "/api/v1/documents",
    "perPage": 15,
    "to": 15,
    "total": 51
  },
  "data": [
    {
      "name": "Wooden sticks Magnum",
      "ownerId": 1,
      "substituteDocumentId": 1,
      "attributesValues": [
        {
          "id": 1,
          "value": "Example value"
        }
      ],
      "id": 1,
      "templateId": 1,
      "createdAt": "1503224430",
      "updatedAt": "1503310830"
    },
    {
      "name": "Wooden sticks Classic",
      "ownerId": 1,
      "substituteDocumentId": 1,
      "attributesValues": [
        {
          "id": 1,
          "value": "Example value"
        }
      ],
      "id": 2,
      "templateId": 2,
      "createdAt": "1503224430",
      "updatedAt": "1503310830"
    },
    {
      "name": "Stick straight 114 mm",
      "ownerId": 1,
      "substituteDocumentId": 1,
      "attributesValues": [
        {
          "id": 1,
          "value": "Example value"
        }
      ],
      "id": 3,
      "templateId": 3,
      "createdAt": "1503224430",
      "updatedAt": "1503310830"
    },
    {
      "name": "Birchwood sticks 114x10x2 mm",
      "ownerId": 1,
      "substituteDocumentId": 1,
      "attributesValues": [
        {
          "id": 1,
          "value": "Example value"
        }
      ],
      "id": 4,
      "templateId": 4,
      "createdAt": "1503224430",
      "updatedAt": "1503310830"
    },
    {
      "name": "Sticks Butterfly 93 mm RPK",
      "ownerId": 1,
      "substituteDocumentId": 1,
      "attributesValues": [
        {
          "id": 1,
          "value": "Example value"
        }
      ],
      "id": 5,
      "templateId": 5,
      "createdAt": "1503224430",
      "updatedAt": "1503310830"
    },
    {
      "name": "Sticks Butterfly 93 mm RPK",
      "ownerId": 1,
      "substituteDocumentId": 1,
      "attributesValues": [
        {
          "id": 1,
          "value": "Example value"
        }
      ],
      "id": 6,
      "templateId": 6,
      "createdAt": "1503224430",
      "updatedAt": "1503310830"
    },
    {
      "name": "Wooden sticks Mag",
      "ownerId": 1,
      "substituteDocumentId": 1,
      "attributesValues": [
        {
          "id": 1,
          "value": "Example value"
        }
      ],
      "id": 7,
      "templateId": 1,
      "createdAt": "1503224430",
      "updatedAt": "1503310830"
    },
    {
      "name": "Wooden sticks Class",
      "ownerId": 1,
      "substituteDocumentId": 1,
      "attributesValues": [
        {
          "id": 1,
          "value": "Example value"
        }
      ],
      "id": 8,
      "templateId": 2,
      "createdAt": "1503224430",
      "updatedAt": "1503310830"
    },
    {
      "name": "Stick straight",
      "ownerId": 1,
      "substituteDocumentId": 1,
      "attributesValues": [
        {
          "id": 1,
          "value": "Example value"
        }
      ],
      "id": 9,
      "templateId": 3,
      "createdAt": "1503224430",
      "updatedAt": "1503310830"
    },
    {
      "name": "Birchwood sticks",
      "ownerId": 1,
      "substituteDocumentId": 1,
      "attributesValues": [
        {
          "id": 1,
          "value": "Example value"
        }
      ],
      "id": 10,
      "templateId": 4,
      "createdAt": "1503224430",
      "updatedAt": "1503310830"
    },
    {
      "name": "Sticks Butterfly",
      "ownerId": 1,
      "substituteDocumentId": 1,
      "attributesValues": [
        {
          "id": 1,
          "value": "Example value"
        }
      ],
      "id": 11,
      "templateId": 5,
      "createdAt": "1503224430",
      "updatedAt": "1503310830"
    },
    {
      "name": "Wooden sticks",
      "ownerId": 1,
      "substituteDocumentId": 1,
      "attributesValues": [
        {
          "id": 1,
          "value": "Example value"
        }
      ],
      "id": 12,
      "templateId": 2,
      "createdAt": "1503224430",
      "updatedAt": "1503310830"
    },
    {
      "name": "Stick straight new",
      "ownerId": 1,
      "substituteDocumentId": 1,
      "attributesValues": [
        {
          "id": 1,
          "value": "Example value"
        }
      ],
      "id": 13,
      "templateId": 3,
      "createdAt": "1503224430",
      "updatedAt": "1503310830"
    },
    {
      "name": "Birchwood sticks new",
      "ownerId": 1,
      "substituteDocumentId": 1,
      "attributesValues": [
        {
          "id": 1,
          "value": "Example value"
        }
      ],
      "id": 14,
      "templateId": 4,
      "createdAt": "1503224430",
      "updatedAt": "1503310830"
    },
    {
      "name": "Sticks Butterfly new",
      "ownerId": 1,
      "substituteDocumentId": 1,
      "attributesValues": [
        {
          "id": 1,
          "value": "Example value"
        }
      ],
      "id": 15,
      "templateId": 5,
      "createdAt": "1503224430",
      "updatedAt": "1503310830"
    }
  ]
}
