{
  "links": {
    "first": "http://localhost/api/v1/users?page=1",
    "last": "http://localhost/api/v1/users?page=4",
    "prev": null,
    "next": "http://localhost/api/v1/users?page=2"
  },
  "meta": {
    "currentPage": 1,
    "from": 1,
    "lastPage": 4,
    "path": "http://localhost/api/v1/users",
    "perPage": 15,
    "to": 15,
    "total": 51
  },
  "data": [
    {"id":1,"fullName":"Cora McGovern","email":"cmcgovern0@nhs.uk","templatesIds":[3,39]},
    {"id":2,"fullName":"Reed Bonhomme","email":"rbonhomme1@foxnews.com","templatesIds":[]},
    {"id":3,"fullName":"Stevena Kentwell","email":"skentwell2@tuttocitta.it","templatesIds":[30,33,17]},
    {"id":4,"fullName":"Gardy Lavielle","email":"glavielle3@cbslocal.com","templatesIds":[63]},
    {"id":5,"fullName":"Bel Showers","email":"bshowers4@mozilla.com","templatesIds":[]},
    {"id":6,"fullName":"Bonnibelle Flude","email":"bflude5@prweb.com","templatesIds":[73,83,43]},
    {"id":7,"fullName":"Bentley Sarfatti","email":"bsarfatti6@blogger.com","templatesIds":[15,44,44]},
    {"id":8,"fullName":"Nanny Beardall","email":"nbeardall7@free.fr","templatesIds":[]},
    {"id":9,"fullName":"Devland Challens","email":"dchallens8@issuu.com","templatesIds":[54]},
    {"id":10,"fullName":"Vasilis Colloff","email":"vcolloff9@edublogs.org","templatesIds":[23,89,98]},
    {"id":11,"fullName":"Rebecka Ginnety","email":"rginnetya@tripadvisor.com","templatesIds":[84,19,65]},
    {"id":12,"fullName":"Myriam Taile","email":"mtaileb@accuweather.com","templatesIds":[54,63,94]},
    {"id":13,"fullName":"Berna Clowes","email":"bclowesc@harvard.edu","templatesIds":[42]},
    {"id":14,"fullName":"Ellis Oager","email":"eoagerd@cbc.ca","templatesIds":[33]},
    {"id":15,"fullName":"Annis Innman","email":"ainnmane@jalbum.net","templatesIds":[75]}
  ]
}
