{
  "links": {
    "first": "http://localhost/api/v1/users?page=1",
    "last": "http://localhost/api/v1/users?page=4",
    "prev": null,
    "next": "http://localhost/api/v1/users?page=2"
  },
  "meta": {
    "currentPage": 1,
    "from": 1,
    "lastPage": 4,
    "path": "http://localhost/api/v1/users",
    "perPage": 15,
    "to": 15,
    "total": 51
  },
  "data": [
    { "id": 1, "name": "Bibendum morbi" },
    { "id": 2, "name": "Morbi" },
    { "id": 3, "name": "Posuere cubilia" },
    { "id": 4, "name": "Lorem quisque" },
    { "id": 5, "name": "Fusce" },
    { "id": 6, "name": "Ultrices posuere" },
    { "id": 7, "name": "Mattis odio donec" },
    { "id": 8, "name": "Suspendisse potenti" },
    { "id": 9, "name": "Lectus suspendisse potenti" },
    { "id": 10, "name": "Tellus in" },
    { "id": 11, "name": "A ipsum integer" },
    { "id": 12, "name": "Ut nulla" },
    { "id": 13, "name": "Donec" },
    { "id": 14, "name": "Lectus" },
    { "id": 15, "name": "A feugiat" }
  ]
}
